\relax 
\providecommand\hyper@newdestlabel[2]{}
\catcode `^\active 
\catcode `"\active 
\catcode `'\active 
\catcode `-\active 
\providecommand\HyperFirstAtBeginDocument{\AtBeginDocument}
\HyperFirstAtBeginDocument{\ifx\hyper@anchor\@undefined
\global\let\oldcontentsline\contentsline
\gdef\contentsline#1#2#3#4{\oldcontentsline{#1}{#2}{#3}}
\global\let\oldnewlabel\newlabel
\gdef\newlabel#1#2{\newlabelxx{#1}#2}
\gdef\newlabelxx#1#2#3#4#5#6{\oldnewlabel{#1}{{#2}{#3}}}
\AtEndDocument{\ifx\hyper@anchor\@undefined
\let\contentsline\oldcontentsline
\let\newlabel\oldnewlabel
\fi}
\fi}
\global\let\hyper@last\relax 
\gdef\HyperFirstAtBeginDocument#1{#1}
\providecommand\HyField@AuxAddToFields[1]{}
\providecommand\HyField@AuxAddToCoFields[2]{}
\babel@aux{slovak}{}
\@writefile{toc}{\contentsline {chapter}{\numberline {1}\IeC {\'U}vod}{2}{chapter.1}}
\@writefile{lof}{\addvspace {10\p@ }}
\@writefile{lot}{\addvspace {10\p@ }}
\@writefile{toc}{\contentsline {chapter}{\numberline {2}Form\IeC {\'a}lny a neform\IeC {\'a}lny popis}{3}{chapter.2}}
\@writefile{lof}{\addvspace {10\p@ }}
\@writefile{lot}{\addvspace {10\p@ }}
\newlabel{description}{{2}{3}{Formálny a neformálny popis}{chapter.2}{}}
\@writefile{toc}{\contentsline {section}{\numberline {2.1}Neform\IeC {\'a}lny popis}{3}{section.2.1}}
\@writefile{toc}{\contentsline {section}{\numberline {2.2}Form\IeC {\'a}lny popis}{4}{section.2.2}}
\@writefile{toc}{\contentsline {subsection}{\numberline {2.2.1}Protokol}{4}{subsection.2.2.1}}
\newlabel{protokol}{{2.2.1}{4}{Protokol}{subsection.2.2.1}{}}
\@writefile{lof}{\contentsline {figure}{\numberline {2.1}{\ignorespaces Uk\IeC {\'a}\IeC {\v z}ka komunik\IeC {\'a}cie pomocou protokolu. Komunik\IeC {\'a}cia za\IeC {\v c}\IeC {\'\i }na \IeC {\'u}vodnou po\IeC {\v z}iadavkou, kde si server ulo\IeC {\v z}\IeC {\'\i } klienta do zoznamu sessions, n\IeC {\'a}sledne od neho prijme log a segment nahr\IeC {\'a}vky. Pri prijat\IeC {\'\i } \IeC {\v d}al\IeC {\v s}ieho segmentu v\IeC {\v s}ak nast\IeC {\'a}va strata pripojenia a server klientovi u\IeC {\v z} nepotvrdzuje \IeC {\'u}spe\IeC {\v s}n\IeC {\'e} prijatie. Klient si neodoslan\IeC {\'y} segment uklad\IeC {\'a}, av\IeC {\v s}ak medzit\IeC {\'y}m m\IeC {\'a} u\IeC {\v z} nahran\IeC {\'y} \IeC {\v d}al\IeC {\v s}\IeC {\'\i }. Ak by ho ihne\IeC {\v d} odoslal, nastala by vo v\IeC {\'y}slednom z\IeC {\'a}zname medzera a do\IeC {\v s}lo by k z\IeC {\'a}mene poradia. Segment si teda uklad\IeC {\'a} a v tomto momente m\IeC {\'a} u\IeC {\v z} ulo\IeC {\v z}en\IeC {\'e} dva segmenty, ktor\IeC {\'e} sa pok\IeC {\'u}si odosla\IeC {\v t} op\IeC {\"a}tovne. Po \IeC {\'u}spe\IeC {\v s}nom odolan\IeC {\'\i } ich z pam\IeC {\"a}te zariadenia ma\IeC {\v z}e. Spojenie je ukon\IeC {\v c}en\IeC {\'e} odoslan\IeC {\'\i }m klientsk\IeC {\'e}ho logu a nastaven\IeC {\'\i }m session na ukon\IeC {\v c}en\IeC {\'u}.}}{5}{figure.2.1}}
\newlabel{protocol-example}{{2.1}{5}{Ukážka komunikácie pomocou protokolu. Komunikácia začína úvodnou požiadavkou, kde si server uloží klienta do zoznamu sessions, následne od neho prijme log a segment nahrávky. Pri prijatí ďalšieho segmentu však nastáva strata pripojenia a server klientovi už nepotvrdzuje úspešné prijatie. Klient si neodoslaný segment ukladá, avšak medzitým má už nahraný ďalší. Ak by ho ihneď odoslal, nastala by vo výslednom zázname medzera a došlo by k zámene poradia. Segment si teda ukladá a v tomto momente má už uložené dva segmenty, ktoré sa pokúsi odoslať opätovne. Po úspešnom odolaní ich z pamäte zariadenia maže. Spojenie je ukončené odoslaním klientského logu a nastavením session na ukončenú}{figure.2.1}{}}
\@writefile{toc}{\contentsline {subsection}{\numberline {2.2.2}Procesy}{6}{subsection.2.2.2}}
\newlabel{recording-and-sending}{{2.2.2}{6}{Procesy}{subsection.2.2.2}{}}
\@writefile{lof}{\contentsline {figure}{\numberline {2.2}{\ignorespaces Chovanie nahr\IeC {\'a}vacieho vl\IeC {\'a}kna aplik\IeC {\'a}cie. Sp\IeC {\'u}\IeC {\v s}\IeC {\v t}a sa pri za\IeC {\v c}iatku nahr\IeC {\'a}vania a pod\IeC {\v l}a potreby tvor\IeC {\'\i } typy odosielac\IeC {\'\i }ch vl\IeC {\'a}kien, pomocou ktor\IeC {\'y}ch sa na server dostan\IeC {\'u} logy a segmenty. V diagrame sa vyskytuj\IeC {\'u} dva typy segmentov. Aktu\IeC {\'a}lne segmenty ozna\IeC {\v c}uj\IeC {\'u} \IeC {\v c}asti nahr\IeC {\'a}vky, ktor\IeC {\'e} sa pr\IeC {\'a}ve dostali do odosielacieho buffru. Neodoslan\IeC {\'e} segmenty vznikaj\IeC {\'u} pri situ\IeC {\'a}cii, ke\IeC {\v d} sa aktu\IeC {\'a}lny segment nepodar\IeC {\'\i } odosla\IeC {\v t} na server a aplik\IeC {\'a}cia ho uklad\IeC {\'a} lok\IeC {\'a}lne do pam\IeC {\"a}te.}}{6}{figure.2.2}}
\newlabel{main-recording-process}{{2.2}{6}{Chovanie nahrávacieho vlákna aplikácie. Spúšťa sa pri začiatku nahrávania a podľa potreby tvorí typy odosielacích vlákien, pomocou ktorých sa na server dostanú logy a segmenty. V diagrame sa vyskytujú dva typy segmentov. Aktuálne segmenty označujú časti nahrávky, ktoré sa práve dostali do odosielacieho buffru. Neodoslané segmenty vznikajú pri situácii, keď sa aktuálny segment nepodarí odoslať na server a aplikácia ho ukladá lokálne do pamäte}{figure.2.2}{}}
\@writefile{toc}{\contentsline {subsection}{\numberline {2.2.3}Offline funkcionalita}{8}{subsection.2.2.3}}
\newlabel{serverless-recording}{{2.2.3}{8}{Offline funkcionalita}{subsection.2.2.3}{}}
\@writefile{toc}{\contentsline {subsection}{\numberline {2.2.4}Op\IeC {\"a}tovn\IeC {\'e} odosielanie}{9}{subsection.2.2.4}}
\newlabel{sending-unsent}{{2.2.4}{9}{Opätovné odosielanie}{subsection.2.2.4}{}}
\@writefile{lof}{\contentsline {figure}{\numberline {2.3}{\ignorespaces Odosielanie z\IeC {\'a}znamov ulo\IeC {\v z}en\IeC {\'y}ch v pam\IeC {\"a}ti v r\IeC {\'a}mci aktu\IeC {\'a}lneho nahr\IeC {\'a}vania.}}{9}{figure.2.3}}
\newlabel{sending-unsent-pic}{{2.3}{9}{Odosielanie záznamov uložených v pamäti v rámci aktuálneho nahrávania}{figure.2.3}{}}
\newlabel{previous-recording}{{2.2.4}{10}{Opätovné odosielanie}{figure.2.3}{}}
\@writefile{toc}{\contentsline {subsection}{\numberline {2.2.5}O\IeC {\v s}etrenie v\IeC {\'y}padkov pripojenia}{10}{subsection.2.2.5}}
\@writefile{toc}{\contentsline {subsection}{\numberline {2.2.6}Logovanie}{11}{subsection.2.2.6}}
\citation{Lathi}
\citation{Physics4}
\@writefile{toc}{\contentsline {chapter}{\numberline {3}Nahr\IeC {\'a}vanie audia}{12}{chapter.3}}
\@writefile{lof}{\addvspace {10\p@ }}
\@writefile{lot}{\addvspace {10\p@ }}
\newlabel{nahravanie}{{3}{12}{Nahrávanie audia}{chapter.3}{}}
\@writefile{toc}{\contentsline {section}{\numberline {3.1}A/D prevodn\IeC {\'\i }k}{12}{section.3.1}}
\newlabel{ad_prevodnik}{{3.1}{12}{A/D prevodník}{section.3.1}{}}
\@writefile{toc}{\contentsline {section}{\numberline {3.2}Pulzn\IeC {\'a} k\IeC {\'o}dov\IeC {\'a} modul\IeC {\'a}cia}{12}{section.3.2}}
\newlabel{PCM}{{3.2}{12}{Pulzná kódová modulácia}{section.3.2}{}}
\@writefile{lof}{\contentsline {figure}{\numberline {3.1}{\ignorespaces Porovnanie kvality audia pri r\IeC {\^o}znych hodnot\IeC {\'a}ch vzorkovacej frekvencie.}}{13}{figure.3.1}}
\newlabel{sampling-comparison}{{3.1}{13}{Porovnanie kvality audia pri rôznych hodnotách vzorkovacej frekvencie}{figure.3.1}{}}
\citation{Mednieks}
\citation{Komatineni}
\@writefile{toc}{\contentsline {chapter}{\numberline {4}V\IeC {\'y}voj na Androide}{14}{chapter.4}}
\@writefile{lof}{\addvspace {10\p@ }}
\@writefile{lot}{\addvspace {10\p@ }}
\newlabel{development_android}{{4}{14}{Vývoj na Androide}{chapter.4}{}}
\@writefile{toc}{\contentsline {section}{\numberline {4.1}Nahr\IeC {\'a}vanie v Androide}{14}{section.4.1}}
\newlabel{recording_android}{{4.1}{14}{Nahrávanie v Androide}{section.4.1}{}}
\@writefile{toc}{\contentsline {subsubsection}{MediaRecorder}{14}{section*.4}}
\@writefile{toc}{\contentsline {subsubsection}{AudioRecord}{14}{section*.5}}
\@writefile{lof}{\contentsline {figure}{\numberline {4.1}{\ignorespaces Stavov\IeC {\'y} diagram pre \texttt  {MediaRecorder}\footnotemark .}}{15}{figure.4.1}}
\newlabel{mediarecorder-states}{{4.1}{15}{Stavový diagram pre \texttt {MediaRecorder}\protect \footnotemark }{figure.4.1}{}}
\@writefile{toc}{\contentsline {subsubsection}{Zdroj audia}{15}{section*.6}}
\@writefile{toc}{\contentsline {subsubsection}{Vzorkovacia frekvencia}{16}{section*.7}}
\@writefile{toc}{\contentsline {subsubsection}{Zvukov\IeC {\'y} kan\IeC {\'a}l}{16}{section*.8}}
\@writefile{toc}{\contentsline {subsubsection}{Audio form\IeC {\'a}t}{16}{section*.9}}
\@writefile{toc}{\contentsline {subsubsection}{Ve\IeC {\v l}kos\IeC {\v t} buffru}{16}{section*.10}}
\@writefile{toc}{\contentsline {section}{\numberline {4.2}\IeC {\v S}trukt\IeC {\'u}ra projektu}{16}{section.4.2}}
\newlabel{android_structure}{{4.2}{16}{Štruktúra projektu}{section.4.2}{}}
\@writefile{lof}{\contentsline {figure}{\numberline {4.2}{\ignorespaces \IeC {\v S}trukt\IeC {\'u}ra Android aplik\IeC {\'a}cie. V\IeC {\v s}etky moduly s\IeC {\'u} ulo\IeC {\v z}en\IeC {\'e} v zlo\IeC {\v z}ke Java. XML s\IeC {\'u}bory predstavuj\IeC {\'u} vizu\IeC {\'a}lnu \IeC {\v s}tyliz\IeC {\'a}ciu prvkov v u\IeC {\v z}\IeC {\'\i }vate\IeC {\v l}skom rozhran\IeC {\'\i }, vzh\IeC {\v l}ad menu a defin\IeC {\'\i }cie \IeC {\v s}t\IeC {\'y}lov, farebnej sch\IeC {\'e}my alebo textov\IeC {\'y}ch re\IeC {\v t}azcov v r\IeC {\'a}mci XML s\IeC {\'u}borov.}}{17}{figure.4.2}}
\newlabel{structure-example}{{4.2}{17}{Štruktúra Android aplikácie. Všetky moduly sú uložené v zložke Java. XML súbory predstavujú vizuálnu štylizáciu prvkov v užívateľskom rozhraní, vzhľad menu a definície štýlov, farebnej schémy alebo textových reťazcov v rámci XML súborov}{figure.4.2}{}}
\citation{Jackson}
\newlabel{manifest}{{4.2}{18}{Manifest}{section*.11}{}}
\@writefile{toc}{\contentsline {section}{\numberline {4.3}Opr\IeC {\'a}vnenia}{18}{section.4.3}}
\newlabel{permissions}{{4.3}{18}{Oprávnenia}{section.4.3}{}}
\@writefile{toc}{\contentsline {section}{\numberline {4.4}Bluetooth}{20}{section.4.4}}
\newlabel{bluetooth}{{4.4}{20}{Bluetooth}{section.4.4}{}}
\citation{Thornsby}
\@writefile{toc}{\contentsline {section}{\numberline {4.5}Podpora viacer\IeC {\'y}ch verzi\IeC {\'\i }}{21}{section.4.5}}
\@writefile{lof}{\contentsline {figure}{\numberline {4.3}{\ignorespaces Podiel verzi\IeC {\'\i } Androidu na trhu za rok 2018\footnotemark . Poradie verzi\IeC {\'\i } od najni\IeC {\v z}\IeC {\v s}ej je Gingerbread, Ice Cream Sandwich, Jelly Bean, KitKat, Lollipop, Marshmallow, Nougat, Oreo.}}{21}{figure.4.3}}
\newlabel{market-share}{{4.3}{21}{Podiel verzií Androidu na trhu za rok 2018\protect \footnotemark . Poradie verzií od najnižšej je Gingerbread, Ice Cream Sandwich, Jelly Bean, KitKat, Lollipop, Marshmallow, Nougat, Oreo}{figure.4.3}{}}
\@writefile{toc}{\contentsline {subsubsection}{Kompatibilita}{21}{section*.16}}
\@writefile{toc}{\contentsline {chapter}{\numberline {5}Implement\IeC {\'a}cia}{23}{chapter.5}}
\@writefile{lof}{\addvspace {10\p@ }}
\@writefile{lot}{\addvspace {10\p@ }}
\newlabel{implementace}{{5}{23}{Implementácia}{chapter.5}{}}
\@writefile{toc}{\contentsline {section}{\numberline {5.1}K\IeC {\'o}dovanie nahr\IeC {\'a}vky}{23}{section.5.1}}
\newlabel{sending-buffer}{{5.1}{23}{Typy buffrov}{section*.17}{}}
\@writefile{toc}{\contentsline {section}{\numberline {5.2}Moduly}{24}{section.5.2}}
\@writefile{lof}{\contentsline {figure}{\numberline {5.1}{\ignorespaces Zjednodu\IeC {\v s}en\IeC {\'y} diagram tried.}}{25}{figure.5.1}}
\newlabel{class_diagram}{{5.1}{25}{Zjednodušený diagram tried}{figure.5.1}{}}
\newlabel{connectivity}{{5.2}{26}{Functions, Connectivity, UIHandler}{section*.20}{}}
\@writefile{lof}{\contentsline {figure}{\numberline {5.2}{\ignorespaces \IeC {\v Z}ivotn\IeC {\'y} cyklus Android aktivity\footnotemark .}}{29}{figure.5.2}}
\newlabel{activity}{{5.2}{29}{Životný cyklus Android aktivity\protect \footnotemark }{figure.5.2}{}}
\@writefile{toc}{\contentsline {section}{\numberline {5.3}U\IeC {\v z}\IeC {\'\i }vate\IeC {\v l}sk\IeC {\'e} rozhranie}{30}{section.5.3}}
\@writefile{lof}{\contentsline {figure}{\numberline {5.3}{\ignorespaces Vzh\IeC {\v l}ad aplik\IeC {\'a}cie po\IeC {\v c}as nahr\IeC {\'a}vania. V hornej li\IeC {\v s}te sa nach\IeC {\'a}dza ikona notifik\IeC {\'a}cie pre nahr\IeC {\'a}vanie.}}{30}{figure.5.3}}
\newlabel{ui}{{5.3}{30}{Vzhľad aplikácie počas nahrávania. V hornej lište sa nachádza ikona notifikácie pre nahrávanie}{figure.5.3}{}}
\@writefile{lof}{\contentsline {figure}{\numberline {5.4}{\ignorespaces Uk\IeC {\'a}\IeC {\v z}ka notifik\IeC {\'a}cie pri offline nahr\IeC {\'a}van\IeC {\'\i }.}}{31}{figure.5.4}}
\newlabel{notification}{{5.4}{31}{Ukážka notifikácie pri offline nahrávaní}{figure.5.4}{}}
\@writefile{lof}{\contentsline {figure}{\numberline {5.5}{\ignorespaces Menu aplik\IeC {\'a}cie.}}{31}{figure.5.5}}
\newlabel{ui-menu}{{5.5}{31}{Menu aplikácie}{figure.5.5}{}}
\@writefile{lof}{\contentsline {figure}{\numberline {5.6}{\ignorespaces Okno pre manu\IeC {\'a}lne zadanie cesty \IeC {\'u}lo\IeC {\v z}iska pri absencii prehliada\IeC {\v c}a zlo\IeC {\v z}iek.}}{31}{figure.5.6}}
\newlabel{ui-directory-chooser}{{5.6}{31}{Okno pre manuálne zadanie cesty úložiska pri absencii prehliadača zložiek}{figure.5.6}{}}
\@writefile{toc}{\contentsline {subsubsection}{Ukladanie nastaven\IeC {\'\i }}{32}{section*.22}}
\@writefile{toc}{\contentsline {subsubsection}{Audio level meter}{33}{section*.23}}
\@writefile{toc}{\contentsline {section}{\numberline {5.4}Bluetooth nahr\IeC {\'a}vanie}{33}{section.5.4}}
\newlabel{external-recording}{{5.4}{33}{Bluetooth nahrávanie}{section.5.4}{}}
\@writefile{toc}{\contentsline {section}{\numberline {5.5}Server}{34}{section.5.5}}
\@writefile{lof}{\contentsline {figure}{\numberline {5.7}{\ignorespaces Dashbaord servera, ktor\IeC {\'y} zobrazuje v\IeC {\v s}etky mo\IeC {\v z}n\IeC {\'e} stavy session.}}{35}{figure.5.7}}
\newlabel{dashboard}{{5.7}{35}{Dashbaord servera, ktorý zobrazuje všetky možné stavy session}{figure.5.7}{}}
\@writefile{toc}{\contentsline {section}{\numberline {5.6}Testovanie}{36}{section.5.6}}
\@writefile{lof}{\contentsline {figure}{\numberline {5.8}{\ignorespaces Nahran\IeC {\'y} sign\IeC {\'a}l po zosilnen\IeC {\'\i }.}}{36}{figure.5.8}}
\newlabel{audacity_sinus_zoom}{{5.8}{36}{Nahraný signál po zosilnení}{figure.5.8}{}}
\@writefile{lof}{\contentsline {figure}{\numberline {5.9}{\ignorespaces Fragment nahran\IeC {\'e}ho sign\IeC {\'a}lu. Pri frekvencii 48 000 Hz je zobrazen\IeC {\'y} priebeh amplit\IeC {\'u}dy o d\IeC {\'l}\IeC {\v z}ke 10 milisek\IeC {\'u}nd, \IeC {\v c}o zodpoved\IeC {\'a} 480 vzorkom.}}{37}{figure.5.9}}
\newlabel{matlab_recorded}{{5.9}{37}{Fragment nahraného signálu. Pri frekvencii 48 000 Hz je zobrazený priebeh amplitúdy o dĺžke 10 milisekúnd, čo zodpovedá 480 vzorkom}{figure.5.9}{}}
\citation{Bracewell}
\citation{Bracewell}
\@writefile{lof}{\contentsline {figure}{\numberline {5.10}{\ignorespaces Porovnanie nahran\IeC {\'e}ho a s\IeC {\'\i }nusov\IeC {\'e}ho sign\IeC {\'a}lu. Nahran\IeC {\'y} sign\IeC {\'a}l je vykreslen\IeC {\'y} modrou farbou a prekr\IeC {\'y}va ho oran\IeC {\v z}ov\IeC {\'y} s\IeC {\'\i }nusov\IeC {\'y} sign\IeC {\'a}l.}}{38}{figure.5.10}}
\newlabel{matlab_comparison}{{5.10}{38}{Porovnanie nahraného a sínusového signálu. Nahraný signál je vykreslený modrou farbou a prekrýva ho oranžový sínusový signál}{figure.5.10}{}}
\newlabel{eq:eq1}{{5.1}{38}{Normalizovaná vzájomná korelácia signálov}{equation.5.6.1}{}}
\newlabel{eq:eq2}{{5.2}{38}{Normalizovaná vzájomná korelácia signálov}{equation.5.6.2}{}}
\@writefile{lof}{\contentsline {figure}{\numberline {5.11}{\ignorespaces Delta nahran\IeC {\'e}ho a s\IeC {\'\i }nusov\IeC {\'e}ho sign\IeC {\'a}lu. Delta predstavuje oran\IeC {\v z}ov\IeC {\'y} sign\IeC {\'a}l ktor\IeC {\'e}ho hodnoty sa nach\IeC {\'a}dzaj\IeC {\'u} okolo nuly. V strede je modrou farbou zn\IeC {\'a}zornen\IeC {\'y} sign\IeC {\'a}l, ktor\IeC {\'e}ho hodn\IeC {\^o}t by delta nadob\IeC {\'u}dala, ak by boli sign\IeC {\'a}ly \IeC {\'u}plne identick\IeC {\'e}.}}{39}{figure.5.11}}
\newlabel{delta}{{5.11}{39}{Delta nahraného a sínusového signálu. Delta predstavuje oranžový signál ktorého hodnoty sa nachádzajú okolo nuly. V strede je modrou farbou znázornený signál, ktorého hodnôt by delta nadobúdala, ak by boli signály úplne identické}{figure.5.11}{}}
\@writefile{lot}{\contentsline {table}{\numberline {5.1}{\ignorespaces Hodnoty delta funkci\IeC {\'\i } v nahran\IeC {\'y}ch sign\IeC {\'a}loch}}{40}{table.5.1}}
\newlabel{deltas}{{5.1}{40}{Hodnoty delta funkcií v nahraných signáloch}{table.5.1}{}}
\@writefile{lof}{\contentsline {figure}{\numberline {5.12}{\ignorespaces Uk\IeC {\'a}\IeC {\v z}ka ru\IeC {\v s}enia v nahr\IeC {\'a}vke. Modrou farbou je zn\IeC {\'a}zornen\IeC {\'a} delta, ktor\IeC {\'a} sa v priebehu ru\IeC {\v s}enia zv\IeC {\"a}\IeC {\v c}\IeC {\v s}uje a nesk\IeC {\^o}r sa op\IeC {\"a}\IeC {\v t} dost\IeC {\'a}va k n\IeC {\'\i }zkym hodnot\IeC {\'a}m. Nahran\IeC {\'y} sign\IeC {\'a}l je ozna\IeC {\v c}en\IeC {\'y} \IeC {\v z}ltou farbou a jeho zv\IeC {\'y}\IeC {\v s}en\IeC {\'a} hlasitos\IeC {\v t} sp\IeC {\^o}sobuje pre\IeC {\v c}nievanie z intervalu amplit\IeC {\'u}dy dan\IeC {\'y}m s\IeC {\'\i }nusov\IeC {\'y}m sign\IeC {\'a}lom.}}{40}{figure.5.12}}
\newlabel{noise}{{5.12}{40}{Ukážka rušenia v nahrávke. Modrou farbou je znázornená delta, ktorá sa v priebehu rušenia zväčšuje a neskôr sa opäť dostáva k nízkym hodnotám. Nahraný signál je označený žltou farbou a jeho zvýšená hlasitosť spôsobuje prečnievanie z intervalu amplitúdy daným sínusovým signálom}{figure.5.12}{}}
\@writefile{lot}{\contentsline {table}{\numberline {5.2}{\ignorespaces Zariadenia, na ktor\IeC {\'y}ch prebehlo testovanie}}{41}{table.5.2}}
\newlabel{devices}{{5.2}{41}{Zariadenia, na ktorých prebehlo testovanie}{table.5.2}{}}
\@writefile{toc}{\contentsline {chapter}{\numberline {6}Z\IeC {\'a}ver}{42}{chapter.6}}
\@writefile{lof}{\addvspace {10\p@ }}
\@writefile{lot}{\addvspace {10\p@ }}
\newlabel{finale}{{6}{42}{Záver}{chapter.6}{}}
\bibstyle{bib-styles/slovakiso}
\bibdata{projekt-20-literatura-bibliography}
\@writefile{toc}{\contentsline {section}{\numberline {6.1}\IeC {\v D}al\IeC {\v s}\IeC {\'\i } v\IeC {\'y}voj}{43}{section.6.1}}
\bibcite{Bracewell}{1}
\bibcite{Jackson}{2}
\bibcite{Physics4}{3}
\bibcite{Komatineni}{4}
\bibcite{Lathi}{5}
\bibcite{Mednieks}{6}
\bibcite{Thornsby}{7}
\@writefile{toc}{\contentsline {chapter}{Literat\IeC {\'u}ra}{44}{chapter*.32}}
\ttl@writefile{ptc}{\ttl@starttoc{chapters@1}}
\ttl@finishall
